%YAML 1.1
%TAG !u! tag:unity3d.com,2011:
--- !u!21 &2100000
Material:
  serializedVersion: 6
  m_ObjectHideFlags: 0
  m_CorrespondingSourceObject: {fileID: 0}
  m_PrefabInstance: {fileID: 0}
  m_PrefabAsset: {fileID: 0}
  m_Name: Water
  m_Shader: {fileID: 46, guid: 0000000000000000f000000000000000, type: 0}
  m_ShaderKeywords: 
  m_LightmapFlags: 6
  m_EnableInstancingVariants: 0
  m_DoubleSidedGI: 0
  m_CustomRenderQueue: -1
  stringTagMap: {}
  disabledShaderPasses: []
  m_SavedProperties:
    serializedVersion: 3
    m_TexEnvs:
    - _BumpMap:
        m_Texture: {fileID: 0}
        m_Scale: {x: 0, y: 0}
        m_Offset: {x: 0, y: 0}
    - _Caustics:
        m_Texture: {fileID: 2800000, guid: eb9e91ee4c264b942a46baeec92ca0a4, type: 3}
        m_Scale: {x: 1, y: 1}
        m_Offset: {x: 0, y: 0}
    - _ColorRamp:
        m_Texture: {fileID: 0}
        m_Scale: {x: 1, y: 1}
        m_Offset: {x: 0, y: 0}
    - _DecalTex:
        m_Texture: {fileID: 0}
        m_Scale: {x: 1, y: 1}
        m_Offset: {x: 0, y: 0}
    - _DepthMap:
        m_Texture: {fileID: 2800000, guid: ff6e0fbcfc24e4f95a2711ea0e73dd6a, type: 3}
        m_Scale: {x: 0.014, y: 0.014}
        m_Offset: {x: 0, y: 0}
    - _DetailAlbedoMap:
        m_Texture: {fileID: 0}
        m_Scale: {x: 1, y: 1}
        m_Offset: {x: 0, y: 0}
    - _DetailMask:
        m_Texture: {fileID: 0}
        m_Scale: {x: 1, y: 1}
        m_Offset: {x: 0, y: 0}
    - _DetailNormalMap:
        m_Texture: {fileID: 0}
        m_Scale: {x: 1, y: 1}
        m_Offset: {x: 0, y: 0}
    - _DisplacementHeightMap:
        m_Texture: {fileID: 2800000, guid: a782b26d6436b48d9882906b9f8ca31a, type: 2}
        m_Scale: {x: 1, y: 1}
        m_Offset: {x: 0, y: 0}
    - _EmissionMap:
        m_Texture: {fileID: 0}
        m_Scale: {x: 1, y: 1}
        m_Offset: {x: 0, y: 0}
    - _Fresnel:
        m_Texture: {fileID: 2800000, guid: 5b5c5575fd4c74abd9f7b30862fb76a3, type: 3}
        m_Scale: {x: 1, y: 1}
        m_Offset: {x: 0, y: 0}
    - _HeightMask:
        m_Texture: {fileID: 2800000, guid: cff6f2c02e93742c095cd0c69d3d92ce, type: 3}
        m_Scale: {x: 1, y: 1}
        m_Offset: {x: 0, y: 0}
    - _MainTex:
        m_Texture: {fileID: 0}
        m_Scale: {x: 0, y: 0}
        m_Offset: {x: 0, y: 0}
    - _MetallicGlossMap:
        m_Texture: {fileID: 0}
        m_Scale: {x: 1, y: 1}
        m_Offset: {x: 0, y: 0}
    - _OcclusionMap:
        m_Texture: {fileID: 0}
        m_Scale: {x: 1, y: 1}
        m_Offset: {x: 0, y: 0}
    - _ParallaxMap:
        m_Texture: {fileID: 0}
        m_Scale: {x: 1, y: 1}
        m_Offset: {x: 0, y: 0}
    - _ReflectionTex:
        m_Texture: {fileID: 0}
        m_Scale: {x: 0, y: 0}
        m_Offset: {x: 0, y: 0}
    - _ReflectiveColor:
        m_Texture: {fileID: 2800000, guid: 17680dc3bf8f74b498b01cf1481e2593, type: 3}
        m_Scale: {x: 1, y: 1}
        m_Offset: {x: 0, y: 0}
    - _ReflectiveColorCube:
        m_Texture: {fileID: 8900000, guid: 0620bdf0302d84423be4aa15b82a0e11, type: 2}
        m_Scale: {x: 0.15, y: 0.1}
        m_Offset: {x: 0, y: 0}
    - _RefractionTex:
        m_Texture: {fileID: 0}
        m_Scale: {x: 1, y: 1}
        m_Offset: {x: 0, y: 0}
    - _SecondDisplacementHeightMap:
        m_Texture: {fileID: 2800000, guid: 4facc21e08e3a43ed97c930f7dae6e7b, type: 2}
        m_Scale: {x: 1, y: 1}
        m_Offset: {x: 0, y: 0}
    - _ShoreTex:
        m_Texture: {fileID: 2800000, guid: 5fbcffe9c2077f04186883cb39275fcc, type: 3}
        m_Scale: {x: 0, y: 0}
        m_Offset: {x: 1, y: 1}
    - _SpecGlossMap:
        m_Texture: {fileID: 0}
        m_Scale: {x: 1, y: 1}
        m_Offset: {x: 0, y: 0}
    - _SpecialWavesTex:
        m_Texture: {fileID: 0}
        m_Scale: {x: 1, y: 1}
        m_Offset: {x: 0, y: 0}
    - _Tex:
        m_Texture: {fileID: 0}
        m_Scale: {x: 1, y: 1}
        m_Offset: {x: 0, y: 0}
    - _ThirdDisplacementHeightMap:
        m_Texture: {fileID: 2800000, guid: dc30b984e8e3c4cdfb38d5fceb411602, type: 2}
        m_Scale: {x: 1, y: 1}
        m_Offset: {x: 0, y: 0}
    - _WaterHolesTex:
        m_Texture: {fileID: 0}
        m_Scale: {x: 1, y: 1}
        m_Offset: {x: 0, y: 0}
    - _WavesTex:
        m_Texture: {fileID: 0}
        m_Scale: {x: 1, y: 1}
        m_Offset: {x: 0, y: 0}
    - m_DisplacementHeightMap:
        m_Texture: {fileID: 0}
        m_Scale: {x: 1, y: 1}
        m_Offset: {x: 0, y: 0}
    - m_SecondDisplacementHeightMap:
        m_Texture: {fileID: 0}
        m_Scale: {x: 1, y: 1}
        m_Offset: {x: 0, y: 0}
    m_Floats:
    - _Ambient: 1
    - _BlendOp: 0
    - _BumpScale: 1
    - _CameraFadingEnabled: 0
    - _CameraFarFadeDistance: 2
    - _CameraNearFadeDistance: 1
    - _ColorRampOffset: 0
    - _Cull: 2
    - _Cutoff: 0.5
    - _DetailNormalMapScale: 1
    - _Displacement: 0.27863377
    - _DisplacementTiling: 18.586807
    - _DistortionBlend: 0.5
    - _DistortionEnabled: 0
    - _DistortionStrength: 1
    - _DistortionStrengthScaled: 0
    - _DstBlend: 0
    - _EmissionEnabled: 0
    - _Exposure: 1
    - _FadeExp: 0.91503274
    - _FlipbookMode: 0
    - _FoamWaveDependency: 0.10205479
    - _FresnelPower: 1.7931035
    - _FresnelScale: 2.06
    - _GerstnerIntensity: 1.6714286
    - _GlossMapScale: 1
    - _Glossiness: 0.5
    - _GlossyReflections: 1
    - _HeightDisplacement: 3.2722514
    - _InvFade: 0.628783
    - _InvFadeDepthFade: 0.07197756
    - _InvFadeFoam: 0.1217
    - _LightingEnabled: 1
    - _Metallic: 0
    - _Mode: 0
    - _NormalsDisplacement: 0
    - _OcclusionStrength: 1
    - _Parallax: 0.02
    - _RandomHeight: 0.5
    - _RandomSpeed: 0.5
    - _ReflDistort: 0.9267696
    - _RefrDistort: 1.4393286
    - _Rotation: 0
    - _Shininess: 10
    - _ShoreTiling: 56.862743
    - _SkyBoxReflection: 0.426
    - _SmoothnessTextureChannel: 0
    - _SoftParticlesEnabled: 0
    - _SoftParticlesFarFadeDistance: 1
    - _SoftParticlesNearFadeDistance: 0
    - _SpecularHighlights: 1
    - _Speed: 0.4137931
    - _SrcBlend: 1
    - _UVSec: 0
    - _WaterDepth: 40.98077
    - _WaveCapsAmount: 0.18275861
    - _WaveFoamDistort: 0.27931035
    - _WaveHeight: 0.5
    - _WaveLength: 0.5
    - _WaveScale: 0.046289656
    - _WaveSpeed: 1
    - _ZWrite: 1
    - _isInnerAlphaBlendOrColor: 0
    - _linearToSrgb: 0
    - _premultiply: 0
    m_Colors:
    - WaveSpeed: {r: 1.086165, g: 4.440575, b: 12.105146, a: -3.0206447}
    - _AnimationDirection: {r: 0, g: 0, b: 0, a: 0}
    - _AnimationTiling: {r: 0.04582553, g: 0.0182, b: 0.045714468, a: 0.027129691}
    - _BaseColor: {r: 0.11044855, g: 0.30400464, b: 0.3207547, a: 1}
    - _BumpDirection: {r: 30, g: 30, b: 30, a: -50}
    - _BumpMap_ST: {r: 1, g: 1, b: 0, a: 0}
    - _BumpTiling: {r: 0.01, g: 0.01, b: 0.01, a: 0.01}
    - _CameraFadeParams: {r: 0, g: Infinity, b: 0, a: 0}
    - _Color: {r: 0, g: 0.6886792, b: 0.5518879, a: 1}
    - _DepthColor: {r: 0.027511697, g: 0.14179105, b: 0.13226777, a: 0.4627451}
    - _DepthColorFade: {r: 0.8880597, g: 0.27834705, b: 0.44463244, a: 0.22352941}
    - _Displacement: {r: 6.6371665, g: 20.353983, b: -1, a: -0.681416}
    - _DisplacementXz: {r: 0.6499999, g: -2.9203715, b: 1.6599998, a: -3.9363046}
    - _DistortParams: {r: 0, g: 0, b: 0, a: 0}
    - _Emission: {r: 0, g: 0, b: 0, a: 0}
    - _EmissionColor: {r: 0, g: 0, b: 0, a: 1}
    - _Extinction: {r: 4.5, g: 75, b: 300, a: 1}
    - _Foam: {r: 1.03, g: 2.68, b: 0, a: 0}
    - _FoamWaveParams: {r: 0, g: 0.24918434, b: 3.3395782, a: 1}
    - _Fresnel_ST: {r: 1, g: 1, b: 0, a: 0}
    - _GAmplitude: {r: 0, g: 0, b: 0, a: 0}
    - _GDirectionAB: {r: 0.46914357, g: 0.35405126, b: -0.2, a: 0.1}
    - _GDirectionCD: {r: 0.7033888, g: -0.6799999, b: 0.7175735, a: -0.2}
    - _GFrequency: {r: 0.5, g: 0.38, b: 0.59, a: 0.6}
    - _GSpeed: {r: -3, g: 2, b: 1, a: 3}
    - _GSteepness: {r: 7, g: 2, b: 6, a: 2}
    - _HorizonColor: {r: 0.052907113, g: 0.24486735, b: 0.2835821, a: 1}
    - _InvFadeParemeter: {r: 0.67, g: 0.17, b: 27.39, a: 9.18}
    - _MainTex_ST: {r: 1, g: 1, b: 0, a: 0}
    - _ReflectionColor: {r: 0.5794164, g: 0.6849238, b: 0.76119405, a: 0.43137255}
    - _ReflectionTex_ST: {r: 1, g: 1, b: 0, a: 0}
    - _ReflectiveColorCube_ST: {r: 1, g: 1, b: 0, a: 0}
    - _ReflectiveColor_ST: {r: 1, g: 1, b: 0, a: 0}
    - _RefrColor: {r: 0.5233905, g: 0.9477612, b: 0.9121496, a: 1}
    - _RefrColorDepth: {r: 0.050066825, g: 0.23134327, b: 0.17049524, a: 1}
    - _RefractionFog: {r: 0.50543475, g: 0.50543475, b: 0.50543475, a: 0.5}
    - _RefractionTex_ST: {r: 1, g: 1, b: 0, a: 0}
    - _ShoreColor: {r: 1, g: 1, b: 1, a: 1}
    - _ShorePerturbation: {r: 0, g: 0, b: 0, a: 0}
    - _ShoreTiling: {r: 1, g: 1, b: 0.1, a: 0.1}
    - _SoftParticleFadeParams: {r: 0, g: 0, b: 0, a: 0}
    - _SpecColor: {r: 0.6650944, g: 0.9793268, b: 1, a: 1}
    - _SpecularColor: {r: 0.91791046, g: 0.91791046, b: 0.91791046, a: 1}
    - _Tint: {r: 0.5, g: 0.5, b: 0.5, a: 0.5}
    - _UnderwaterColor: {r: 0.6950323, g: 0.89552236, b: 0.7502397, a: 1}
    - _WaveOffset: {r: -0, g: -0, b: -0, a: -0}
    - _WaveScale4: {r: 0, g: 0, b: 0, a: 0}
    - _WorldLightDir: {r: -0.030375138, g: -0.20139083, b: -0.97903997, a: 0}
--- !u!1002 &2100001
EditorExtensionImpl:
  serializedVersion: 6
